<?xml version="1.0" encoding="UTF-8" standalone="no"?>
<svg
   xmlns:dc="http://purl.org/dc/elements/1.1/"
   xmlns:cc="http://creativecommons.org/ns#"
   xmlns:rdf="http://www.w3.org/1999/02/22-rdf-syntax-ns#"
   xmlns:svg="http://www.w3.org/2000/svg"
   xmlns="http://www.w3.org/2000/svg"
   xmlns:sodipodi="http://sodipodi.sourceforge.net/DTD/sodipodi-0.dtd"
   xmlns:inkscape="http://www.inkscape.org/namespaces/inkscape"
   width="20.0px"
   height="20.0px"
   viewBox="0 0 20.0 20.0"
   version="1.1"
   id="SVGRoot"
   sodipodi:docname="cloth.svg"
   inkscape:version="1.0.1 (c497b03c, 2020-09-10)">
  <defs
     id="defs1504" />
  <sodipodi:namedview
     id="base"
     pagecolor="#ffffff"
     bordercolor="#666666"
     borderopacity="1.0"
     inkscape:pageopacity="0.0"
     inkscape:pageshadow="2"
     inkscape:zoom="30.052038"
     inkscape:cx="11.104947"
     inkscape:cy="11.033535"
     inkscape:document-units="px"
     inkscape:current-layer="layer1"
     inkscape:document-rotation="0"
     showgrid="true"
     inkscape:window-width="1434"
     inkscape:window-height="1174"
     inkscape:window-x="161"
     inkscape:window-y="60"
     inkscape:window-maximized="0"
     inkscape:snap-global="false">
    <inkscape:grid
       type="xygrid"
       id="grid2074" />
  </sodipodi:namedview>
  <metadata
     id="metadata1507">
    <rdf:RDF>
      <cc:Work
         rdf:about="">
        <dc:format>image/svg+xml</dc:format>
        <dc:type
           rdf:resource="http://purl.org/dc/dcmitype/StillImage" />
        <dc:title></dc:title>
      </cc:Work>
    </rdf:RDF>
  </metadata>
  <g
     inkscape:label="Calque 1"
     inkscape:groupmode="layer"
     id="layer1">
    <path
       style="color:#000000;font-style:normal;font-variant:normal;font-weight:normal;font-stretch:normal;font-size:medium;line-height:normal;font-family:sans-serif;font-variant-ligatures:normal;font-variant-position:normal;font-variant-caps:normal;font-variant-numeric:normal;font-variant-alternates:normal;font-variant-east-asian:normal;font-feature-settings:normal;font-variation-settings:normal;text-indent:0;text-align:start;text-decoration:none;text-decoration-line:none;text-decoration-style:solid;text-decoration-color:#000000;letter-spacing:normal;word-spacing:normal;text-transform:none;writing-mode:lr-tb;direction:ltr;text-orientation:mixed;dominant-baseline:auto;baseline-shift:baseline;text-anchor:start;white-space:normal;shape-padding:0;shape-margin:0;inline-size:0;clip-rule:nonzero;display:inline;overflow:visible;visibility:visible;isolation:auto;mix-blend-mode:normal;color-interpolation:sRGB;color-interpolation-filters:linearRGB;solid-color:#000000;solid-opacity:1;vector-effect:none;fill:#000000;fill-opacity:1;fill-rule:nonzero;stroke:none;stroke-width:1px;stroke-linecap:butt;stroke-linejoin:miter;stroke-miterlimit:4;stroke-dasharray:none;stroke-dashoffset:0;stroke-opacity:1;color-rendering:auto;image-rendering:auto;shape-rendering:auto;text-rendering:auto;enable-background:accumulate;stop-color:#000000;stop-opacity:1;opacity:1"
       d="M 12.34375 1.4414062 C 11.653748 1.6419984 10.960001 2.0914975 10.824219 2.8730469 L 10.871094 2.7324219 C 10.695073 3.0799643 10.244737 3.2742386 9.7792969 3.2421875 C 9.3138567 3.2101364 8.9488345 2.9903451 8.8476562 2.5859375 L 8.8320312 2.5253906 L 8.8007812 2.46875 C 8.5092336 1.9359896 7.9853054 1.674047 7.5097656 1.5898438 C 7.0342259 1.5056405 6.5728136 1.5388513 6.1679688 1.5292969 L 6.1386719 1.5292969 L 6.1074219 1.53125 C 4.8907148 1.647854 4.1231166 2.2386954 3.5136719 2.9960938 C 2.9042271 3.7534921 2.3746493 4.6720704 1.3847656 5.7148438 L 1.375 5.7246094 L 1.3671875 5.734375 C 1.038677 6.1209323 0.68145192 6.6487079 0.52539062 7.2558594 C 0.44735998 7.5594351 0.42198338 7.890482 0.51367188 8.2226562 C 0.60536037 8.5548305 0.82598865 8.8713338 1.1503906 9.0976562 L 1.1894531 9.125 L 1.234375 9.1445312 C 1.23283 9.143848 1.3792806 9.2534334 1.5253906 9.4101562 C 1.6715006 9.5668791 1.8342232 9.7616095 2.0253906 9.9335938 C 2.1209743 10.019586 2.2236365 10.102613 2.3613281 10.169922 C 2.4990197 10.23723 2.692814 10.28968 2.9023438 10.238281 C 3.1118735 10.186882 3.2795164 10.038782 3.3808594 9.8847656 C 3.4583604 9.7669834 3.5006527 9.6271323 3.5449219 9.484375 C 4.2656919 8.3425587 4.851851 7.1968228 5.2050781 6.7480469 C 5.2632993 6.9017117 5.3617067 7.0984787 5.4472656 7.7480469 L 5.4492188 7.7636719 L 5.4511719 7.7792969 C 5.6737343 8.9078407 6.0657716 9.9278122 6.2402344 10.941406 L 6.2460938 10.970703 L 6.2539062 10.998047 C 6.3829013 11.432767 6.4694509 11.90295 6.4453125 12.3125 C 6.4211741 12.72205 6.3040888 13.056687 6.0214844 13.333984 L 6.0019531 13.353516 L 5.984375 13.375 C 5.3544558 14.152757 4.4645528 14.770292 3.6347656 15.554688 C 3.1568933 15.705997 2.7825489 16.027446 2.6269531 16.46875 C 2.5334483 16.73395 2.5236309 17.100416 2.7519531 17.382812 C 2.9802754 17.665209 3.3420508 17.759285 3.7265625 17.748047 L 3.546875 17.720703 C 5.2635706 18.317256 7.0561701 18.815031 8.9296875 18.914062 C 8.9309227 18.914157 8.9323585 18.913968 8.9335938 18.914062 C 10.599187 19.041685 12.343394 19.450953 14.173828 19.289062 L 14.205078 19.287109 L 14.234375 19.28125 C 15.162722 19.083456 15.718602 18.919089 16.105469 18.693359 C 16.298902 18.580495 16.478177 18.439364 16.568359 18.193359 C 16.658542 17.947355 16.5787 17.66841 16.474609 17.509766 C 16.266428 17.192476 16.004766 17.054026 15.765625 16.880859 C 15.527437 16.708383 15.319581 16.529965 15.25 16.423828 C 15.249722 16.423403 15.248321 16.422297 15.248047 16.421875 C 14.70288 15.437183 14.232191 14.358905 13.539062 13.351562 L 13.578125 13.416016 C 12.608182 11.429212 12.184469 9.1159674 12.634766 6.9707031 C 12.738656 6.5801263 12.880393 6.0601644 13.007812 5.8574219 C 13.072528 5.7544509 13.077846 5.7881721 13.013672 5.7929688 C 12.949498 5.7977654 13.005209 5.7683121 13.177734 5.9570312 L 13.216797 6 L 13.265625 6.0332031 C 13.982069 6.5188536 14.700767 7.0237279 15.429688 7.5078125 C 15.71379 7.7893113 16.033713 8.1376508 16.4375 8.4316406 C 16.857198 8.7372148 17.393771 8.984991 18.013672 8.9335938 L 18.060547 8.9296875 L 18.109375 8.9160156 C 18.821288 8.7132859 19.256408 8.1050182 19.394531 7.4804688 C 19.532655 6.8559193 19.427768 6.1804236 19.058594 5.6425781 L 19.039062 5.6152344 L 19.015625 5.5898438 C 17.441194 3.8518064 16.081996 2.8082693 14.462891 1.6113281 L 14.4375 1.5917969 L 14.410156 1.5761719 C 13.795914 1.2328907 13.033752 1.2408141 12.34375 1.4414062 z M 12.623047 2.4003906 C 13.091829 2.2641099 13.65296 2.3122846 13.908203 2.4492188 C 15.485137 3.6156647 16.752134 4.595105 18.238281 6.2285156 C 18.416813 6.5002022 18.494788 6.9182724 18.417969 7.265625 C 18.344145 7.5994337 18.159207 7.810534 17.867188 7.9140625 C 17.576032 7.9206124 17.315036 7.83251 17.027344 7.6230469 C 16.71826 7.3980091 16.40745 7.067667 16.089844 6.7558594 L 16.056641 6.7226562 L 16.015625 6.6972656 C 15.290432 6.2164789 14.562531 5.7042277 13.826172 5.2050781 L 13.914062 5.28125 C 13.638465 4.9797846 13.319029 4.7665507 12.939453 4.7949219 C 12.559877 4.8232931 12.308528 5.0881383 12.160156 5.3242188 C 11.863414 5.7963796 11.757184 6.3745754 11.662109 6.7324219 L 11.658203 6.7441406 L 11.65625 6.7578125 C 11.147786 9.1685993 11.625246 11.695582 12.679688 13.855469 L 12.695312 13.888672 L 12.716797 13.919922 C 13.344966 14.832858 13.807573 15.889166 14.390625 16.9375 L 14.398438 16.951172 L 14.408203 16.966797 C 14.626658 17.303593 14.928182 17.509286 15.179688 17.691406 C 15.31164 17.786956 15.335543 17.814668 15.419922 17.884766 C 15.202631 17.987221 14.812062 18.128682 14.064453 18.291016 C 12.448176 18.429483 10.767144 18.052492 9.0058594 17.917969 L 9 17.917969 L 8.9941406 17.917969 C 7.2607993 17.827958 5.556247 17.358946 3.8769531 16.775391 L 3.7890625 16.746094 L 3.6972656 16.748047 C 3.6166752 16.750402 3.6611529 16.755582 3.6328125 16.75 C 3.716325 16.627755 3.8955913 16.445224 4.0078125 16.433594 L 4.1777344 16.416016 L 4.3007812 16.298828 C 5.0475749 15.589171 5.9751762 14.952045 6.7265625 14.039062 C 7.2051601 13.565499 7.4090246 12.953644 7.4433594 12.371094 C 7.4777792 11.7871 7.361224 11.219471 7.2128906 10.71875 C 7.0130626 9.5987794 6.6305561 8.5846715 6.4335938 7.5859375 L 6.4375 7.6171875 C 6.319702 6.7228593 6.237805 6.2087352 5.8964844 5.8105469 C 5.7258241 5.6114527 5.3643164 5.4789324 5.0996094 5.5546875 C 4.8349024 5.6304426 4.6834733 5.7870195 4.5371094 5.953125 C 3.9516536 6.6175469 3.4090306 7.8322807 2.6894531 8.96875 L 2.6464844 9.0351562 L 2.6269531 9.1113281 C 2.6260502 9.1148395 2.6259068 9.1137574 2.625 9.1171875 C 2.51917 9.0126587 2.3992172 8.8801914 2.2578125 8.7285156 C 2.0901004 8.5486216 1.9270716 8.3580086 1.6386719 8.2304688 L 1.7226562 8.2773438 C 1.5647128 8.1671529 1.5085811 8.0730301 1.4765625 7.9570312 C 1.4445439 7.8410324 1.4470288 7.6871932 1.4941406 7.5039062 C 1.5883642 7.1373323 1.8704662 6.6869181 2.1289062 6.3828125 L 2.1113281 6.4023438 C 3.179445 5.2771572 3.7596789 4.2858023 4.2929688 3.6230469 C 4.8234398 2.9637945 5.2316264 2.6263981 6.1914062 2.53125 C 6.6321558 2.5395749 7.0441708 2.522556 7.3359375 2.5742188 C 7.6396555 2.6279977 7.7860879 2.6975187 7.9238281 2.9492188 L 7.8769531 2.8300781 C 8.0982724 3.714687 8.9231797 4.1859878 9.7109375 4.2402344 C 10.498695 4.2944809 11.365123 3.9705029 11.763672 3.1835938 L 11.796875 3.1171875 L 11.810547 3.0429688 C 11.852259 2.8028785 12.149285 2.5381191 12.623047 2.4003906 z "
       id="path2107" />
  </g>
</svg>
